…
### The `mpg` data frame

You can test your answer with the `mpg` **data frame** found in ggplot2
(a.k.a. `ggplot2::mpg`). A data frame is a rectangular collection of
variables (in the columns) and observations (in the rows). `mpg`
contains observations collected by the US Environmental Protection
Agency on 38 car models.

``` r
mpg
```

    ## # A tibble: 234 × 11
    ##    manufacturer model      displ  year   cyl trans    drv     cty   hwy fl    class
    ##    <chr>        <chr>      <dbl> <int> <int> <chr>    <chr> <int> <int> <chr> <chr>
    ##  1 audi         a4           1.8  1999     4 auto(l5) f        18    29 p     comp…
    ##  2 audi         a4           1.8  1999     4 manual(… f        21    29 p     comp…
    ##  3 audi         a4           2    2008     4 manual(… f        20    31 p     comp…
    ##  4 audi         a4           2    2008     4 auto(av) f        21    30 p     comp…
    ##  5 audi         a4           2.8  1999     6 auto(l5) f        16    26 p     comp…
    ##  6 audi         a4           2.8  1999     6 manual(… f        18    26 p     comp…
    ##  7 audi         a4           3.1  2008     6 auto(av) f        18    27 p     comp…
    ##  8 audi         a4 quattro   1.8  1999     4 manual(… 4        18    26 p     comp…
    ##  9 audi         a4 quattro   1.8  1999     4 auto(l5) 4        16    25 p     comp…
    ## 10 audi         a4 quattro   2    2008     4 manual(… 4        20    28 p     comp…
    ## # … with 224 more rows
    ## # ℹ Use `print(n = ...)` to see more rows
…
