…
**Exercise** Write an expression using `is.na` to subset fundata,
removing rows with missing temperature values and save the result

### Manipulating data with dplyr

The `dplyr` package contains lots of useful functions for manipulating
data.  
Let's try it with the `starwars` data set. As a first step, let's look
at what's in this:

``` r
starwars
```

    ## # A tibble: 87 × 14
    ##    name       height  mass hair_…¹ skin_…² eye_c…³ birth…⁴ sex  
    ##    <chr>       <int> <dbl> <chr>   <chr>   <chr>     <dbl> <chr>
    ##  1 Luke Skyw…    172    77 blond   fair    blue       19   male 
    ##  2 C-3PO         167    75 <NA>    gold    yellow    112   none 
    ##  3 R2-D2          96    32 <NA>    white,… red        33   none 
    ##  4 Darth Vad…    202   136 none    white   yellow     41.9 male 
    ##  5 Leia Orga…    150    49 brown   light   brown      19   fema…
    ##  6 Owen Lars     178   120 brown,… light   blue       52   male 
    ##  7 Beru Whit…    165    75 brown   light   blue       47   fema…
    ##  8 R5-D4          97    32 <NA>    white,… red        NA   none 
    ##  9 Biggs Dar…    183    84 black   light   brown      24   male 
    ## 10 Obi-Wan K…    182    77 auburn… fair    blue-g…    57   male 
    ## # … with 77 more rows, 6 more variables: gender <chr>,
    ## #   homeworld <chr>, species <chr>, films <list>,
    ## #   vehicles <list>, starships <list>, and abbreviated variable
    ## #   names ¹​hair_color, ²​skin_color, ³​eye_color, ⁴​birth_year
    ## # ℹ Use `print(n = ...)` to see more rows, and `colnames()` to see all variable names
…
These work the same as unix pipes - data flows from left to right. We
took the data contained in starwars and piped into the `filter` function
and told it which columns to operate on. This is in some ways a little
more intuitive and easier to type than the above

### Arrange rows with `arrange()`

We can also reorder or sort data:

``` r
starwars %>% arrange(height, mass)
```

    ## # A tibble: 87 × 14
    ##    name       height  mass hair_…¹ skin_…² eye_c…³ birth…⁴ sex  
    ##    <chr>       <int> <dbl> <chr>   <chr>   <chr>     <dbl> <chr>
    ##  1 Yoda           66    17 white   green   brown       896 male 
    ##  2 Ratts Tye…     79    15 none    grey, … unknown      NA male 
    ##  3 Wicket Sy…     88    20 brown   brown   brown         8 male 
    ##  4 Dud Bolt       94    45 none    blue, … yellow       NA male 
    ##  5 R2-D2          96    32 <NA>    white,… red          33 none 
    ##  6 R4-P17         96    NA none    silver… red, b…      NA none 
    ##  7 R5-D4          97    32 <NA>    white,… red          NA none 
    ##  8 Sebulba       112    40 none    grey, … orange       NA male 
    ##  9 Gasgano       122    NA none    white,… black        NA male 
    ## 10 Watto         137    NA black   blue, … yellow       NA male 
    ## # … with 77 more rows, 6 more variables: gender <chr>,
    ## #   homeworld <chr>, species <chr>, films <list>,
    ## #   vehicles <list>, starships <list>, and abbreviated variable
    ## #   names ¹​hair_color, ²​skin_color, ³​eye_color, ⁴​birth_year
    ## # ℹ Use `print(n = ...)` to see more rows, and `colnames()` to see all variable names

If you provide more than one column name, each additional column will be
used to break ties in the values of the preceding column.

### Select columns with `select()`

This is kind of a big dataset with lots of columns, maybe we only really
care about a few of them. Let's grab just those:

``` r
starwars %>% select(hair_color, skin_color, eye_color)
```

    ## # A tibble: 87 × 3
    ##    hair_color    skin_color  eye_color
    ##    <chr>         <chr>       <chr>    
    ##  1 blond         fair        blue     
    ##  2 <NA>          gold        yellow   
    ##  3 <NA>          white, blue red      
    ##  4 none          white       yellow   
    ##  5 brown         light       brown    
    ##  6 brown, grey   light       blue     
    ##  7 brown         light       blue     
    ##  8 <NA>          white, red  red      
    ##  9 black         light       brown    
    ## 10 auburn, white fair        blue-gray
    ## # … with 77 more rows
    ## # ℹ Use `print(n = ...)` to see more rows
…
``` r
starwars %>%
  group_by(species, sex) %>%
  select(height, mass) %>%
  summarize(
    height = mean(height, na.rm = TRUE),
    mass = mean(mass, na.rm = TRUE)
  )
```

    ## Adding missing grouping variables: `species`, `sex`
    ## `summarise()` has grouped output by 'species'. You can override
    ## using the `.groups` argument.

    ## # A tibble: 41 × 4
    ## # Groups:   species [38]
    ##    species   sex    height  mass
    ##    <chr>     <chr>   <dbl> <dbl>
    ##  1 Aleena    male      79   15  
    ##  2 Besalisk  male     198  102  
    ##  3 Cerean    male     198   82  
    ##  4 Chagrian  male     196  NaN  
    ##  5 Clawdite  female   168   55  
    ##  6 Droid     none     131.  69.8
    ##  7 Dug       male     112   40  
    ##  8 Ewok      male      88   20  
    ##  9 Geonosian male     183   80  
    ## 10 Gungan    male     209.  74  
    ## # … with 31 more rows
    ## # ℹ Use `print(n = ...)` to see more rows
…
